[gd_scene load_steps=8 format=2]

[ext_resource path="res://Player/Player.gd" type="Script" id=1]
[ext_resource path="res://Player/Face.png" type="Texture" id=2]
[ext_resource path="res://Player/Eyeball.png" type="Texture" id=3]
[ext_resource path="res://Player/Eyebrow.png" type="Texture" id=4]
[ext_resource path="res://Player/Mouth.png" type="Texture" id=5]
[ext_resource path="res://Assets/UI_Theme.theme" type="Theme" id=6]

[sub_resource type="CircleShape2D" id=1]
radius = 65.0505

[node name="Player" type="KinematicBody2D"]
script = ExtResource( 1 )

[node name="GunAnchor" type="Node2D" parent="."]

[node name="Face" type="Sprite" parent="."]
texture = ExtResource( 2 )

[node name="EyeLeft" type="Sprite" parent="."]
position = Vector2( -15.7297, -16.5936 )
texture = ExtResource( 3 )

[node name="EyeRight" type="Sprite" parent="."]
position = Vector2( 15.605, -16.6248 )
texture = ExtResource( 3 )

[node name="EyebrowLeft" type="Sprite" parent="."]
position = Vector2( -29.1839, -37.7683 )
texture = ExtResource( 4 )

[node name="EyebrowRight" type="Sprite" parent="."]
position = Vector2( 30.8175, -37.9523 )
scale = Vector2( -1, 1 )
texture = ExtResource( 4 )

[node name="Mouth" type="Sprite" parent="."]
position = Vector2( 2.39235, 36.8054 )
texture = ExtResource( 5 )

[node name="CollisionShape2D" type="CollisionShape2D" parent="."]
visible = false
shape = SubResource( 1 )

[node name="you" type="Label" parent="."]
margin_left = -59.0
margin_top = -7.0
margin_right = 59.0
margin_bottom = 7.0
size_flags_horizontal = 3
size_flags_vertical = 6
theme = ExtResource( 6 )
custom_colors/font_color = Color( 0.235294, 0.85098, 0.12549, 1 )
custom_colors/font_color_shadow = Color( 0, 0, 0, 1 )
text = "You"
align = 1
valign = 1
