<?xml version="1.0" encoding="UTF-8" standalone="no"?>
<!-- Created with Inkscape (http://www.inkscape.org/) -->

<svg
   xmlns:dc="http://purl.org/dc/elements/1.1/"
   xmlns:cc="http://creativecommons.org/ns#"
   xmlns:rdf="http://www.w3.org/1999/02/22-rdf-syntax-ns#"
   xmlns:svg="http://www.w3.org/2000/svg"
   xmlns="http://www.w3.org/2000/svg"
   xmlns:sodipodi="http://sodipodi.sourceforge.net/DTD/sodipodi-0.dtd"
   xmlns:inkscape="http://www.inkscape.org/namespaces/inkscape"
   width="210mm"
   height="297mm"
   viewBox="0 0 210 297"
   version="1.1"
   id="svg8"
   inkscape:version="0.92.3 (2405546, 2018-03-11)"
   sodipodi:docname="Player.svg">
  <defs
     id="defs2" />
  <sodipodi:namedview
     id="base"
     pagecolor="#ffffff"
     bordercolor="#666666"
     borderopacity="1.0"
     inkscape:pageopacity="0.0"
     inkscape:pageshadow="2"
     inkscape:zoom="1.4"
     inkscape:cx="437.1206"
     inkscape:cy="599.05708"
     inkscape:document-units="mm"
     inkscape:current-layer="layer1"
     showgrid="false"
     showguides="false"
     inkscape:window-width="2560"
     inkscape:window-height="1381"
     inkscape:window-x="0"
     inkscape:window-y="0"
     inkscape:window-maximized="1" />
  <metadata
     id="metadata5">
    <rdf:RDF>
      <cc:Work
         rdf:about="">
        <dc:format>image/svg+xml</dc:format>
        <dc:type
           rdf:resource="http://purl.org/dc/dcmitype/StillImage" />
        <dc:title></dc:title>
      </cc:Work>
    </rdf:RDF>
  </metadata>
  <g
     inkscape:label="Layer 1"
     inkscape:groupmode="layer"
     id="layer1">
    <ellipse
       r="67.351921"
       cy="129.422"
       cx="99.424248"
       id="ellipse77"
       style="fill:#b1a077;fill-opacity:1;stroke-width:0.26458332" />
    <ellipse
       r="67.351921"
       cy="129.422"
       cx="99.424248"
       id="ellipse79"
       style="fill:#b1a077;fill-opacity:1;stroke-width:0.26458332" />
    <g
       id="g85"
       inkscape:export-filename="/home/boss/Documents/GitlabThings/deathmatch/Player/Face.png"
       inkscape:export-xdpi="24.135912"
       inkscape:export-ydpi="24.135912">
      <circle
         r="67.351921"
         cy="128.47705"
         cx="103.58199"
         id="path75"
         style="fill:#b1a077;fill-opacity:1;stroke-width:0.26458332" />
      <ellipse
         ry="64.139122"
         rx="62.816208"
         style="fill:#d9cdaf;fill-opacity:1;stroke-width:0.24935026"
         id="circle81"
         cx="103.58199"
         cy="128.47705" />
    </g>
    <g
       id="g97"
       inkscape:export-filename="/home/boss/Documents/GitlabThings/deathmatch/Player/Face.png"
       inkscape:export-xdpi="24.135912"
       inkscape:export-ydpi="24.135912">
      <ellipse
         ry="13.781746"
         rx="20.045214"
         cy="110.47831"
         cx="75.769272"
         id="path87"
         style="fill:#d3bf8f;fill-opacity:1;stroke-width:0.28668743" />
      <ellipse
         style="fill:#e9e9e9;fill-opacity:1;stroke-width:0.2613093"
         id="ellipse93"
         cx="75.769272"
         cy="110.47831"
         rx="18.441597"
         ry="12.445398" />
    </g>
    <g
       id="g103"
       transform="translate(56.126601)"
       inkscape:export-filename="/home/boss/Documents/GitlabThings/deathmatch/Player/Face.png"
       inkscape:export-xdpi="24.135912"
       inkscape:export-ydpi="24.135912">
      <ellipse
         style="fill:#d3bf8f;fill-opacity:1;stroke-width:0.28668743"
         id="ellipse99"
         cx="75.769272"
         cy="110.47831"
         rx="20.045214"
         ry="13.781746" />
      <ellipse
         ry="12.445398"
         rx="18.441597"
         cy="110.47831"
         cx="75.769272"
         id="ellipse101"
         style="fill:#e9e9e9;fill-opacity:1;stroke-width:0.2613093" />
    </g>
    <g
       id="g114"
       transform="matrix(0.50644894,0,0,0.50644894,45.930899,26.514272)"
       inkscape:export-filename="/home/boss/Documents/GitlabThings/deathmatch/Player/Eyeball.png"
       inkscape:export-xdpi="24.135912"
       inkscape:export-ydpi="24.135912">
      <circle
         r="14.079613"
         cy="38.558777"
         cx="60.570683"
         id="path105"
         style="fill:#35baf3;fill-opacity:1;stroke-width:0.26458332" />
      <ellipse
         ry="7.3978744"
         rx="7.1306052"
         style="fill:#2f2f2f;fill-opacity:1;stroke-width:0.1364861"
         id="circle107"
         cx="60.570683"
         cy="38.558777" />
      <ellipse
         cy="33.399593"
         cx="64.166374"
         id="ellipse109"
         style="fill:#e9e9e9;fill-opacity:1;stroke-width:0.0674647"
         rx="3.5246382"
         ry="3.6567485" />
    </g>
    <path
       style="fill:#2f2f2f;fill-opacity:1;stroke-width:0.26458332"
       d="m 138.71288,218.95729 c 10e-6,3.98544 -18.09887,7.75082 -37.95227,7.75082 -19.853409,0 -37.818657,-2.2954 -37.818649,-6.28084 -8e-6,-3.98544 17.898423,2.20497 37.751829,2.20497 19.8534,0 38.0191,-7.66039 38.01909,-3.67495 z"
       id="path135"
       inkscape:connector-curvature="0"
       sodipodi:nodetypes="cscsc"
       inkscape:export-filename="/home/boss/Documents/GitlabThings/deathmatch/Player/Mouth.png"
       inkscape:export-xdpi="24.135912"
       inkscape:export-ydpi="24.135912" />
    <path
       sodipodi:nodetypes="cscsssc"
       inkscape:connector-curvature="0"
       id="path140"
       d="m 63.403546,29.717616 c -5e-6,-1.932973 10.053781,-7.397237 19.682852,-7.397237 9.629076,0 18.342372,1.647829 18.342362,3.580802 1e-5,1.21165 -3.444276,-0.126835 -8.361526,-0.995313 -2.927347,-0.517025 -6.355164,-0.608656 -9.948428,-0.608656 -2.35699,0 -4.930357,0.157106 -7.187494,0.794241 -6.964002,1.965767 -12.52777,6.085983 -12.527766,4.626163 z"
       style="fill:#2f2f2f;fill-opacity:1;stroke-width:0.12832524"
       inkscape:export-filename="/home/boss/Documents/GitlabThings/deathmatch/Player/Eyebrow.png"
       inkscape:export-xdpi="24.135912"
       inkscape:export-ydpi="24.135912" />
  </g>
</svg>
