<?xml version="1.0" encoding="UTF-8" standalone="no"?>
<!-- Created with Inkscape (http://www.inkscape.org/) -->

<svg
   xmlns:dc="http://purl.org/dc/elements/1.1/"
   xmlns:cc="http://creativecommons.org/ns#"
   xmlns:rdf="http://www.w3.org/1999/02/22-rdf-syntax-ns#"
   xmlns:svg="http://www.w3.org/2000/svg"
   xmlns="http://www.w3.org/2000/svg"
   xmlns:sodipodi="http://sodipodi.sourceforge.net/DTD/sodipodi-0.dtd"
   xmlns:inkscape="http://www.inkscape.org/namespaces/inkscape"
   width="210mm"
   height="297mm"
   viewBox="0 0 210 297"
   version="1.1"
   id="svg345"
   inkscape:version="0.92.3 (2405546, 2018-03-11)"
   sodipodi:docname="ShieldPickup.svg"
   inkscape:export-filename="/home/boss/Documents/GitlabThings/deathmatch/Crates/Shield/Shield.png"
   inkscape:export-xdpi="16.801794"
   inkscape:export-ydpi="16.801794">
  <defs
     id="defs339" />
  <sodipodi:namedview
     id="base"
     pagecolor="#ffffff"
     bordercolor="#666666"
     borderopacity="1.0"
     inkscape:pageopacity="0.0"
     inkscape:pageshadow="2"
     inkscape:zoom="0.7"
     inkscape:cx="457.65528"
     inkscape:cy="536.74496"
     inkscape:document-units="mm"
     inkscape:current-layer="layer1"
     showgrid="false"
     inkscape:window-width="2560"
     inkscape:window-height="1381"
     inkscape:window-x="0"
     inkscape:window-y="0"
     inkscape:window-maximized="1" />
  <metadata
     id="metadata342">
    <rdf:RDF>
      <cc:Work
         rdf:about="">
        <dc:format>image/svg+xml</dc:format>
        <dc:type
           rdf:resource="http://purl.org/dc/dcmitype/StillImage" />
        <dc:title></dc:title>
      </cc:Work>
    </rdf:RDF>
  </metadata>
  <g
     inkscape:label="Layer 1"
     inkscape:groupmode="layer"
     id="layer1">
    <rect
       style="fill:#616374;fill-opacity:1;stroke-width:0.21464798"
       id="rect414"
       width="96.751572"
       height="90.239258"
       x="60.670181"
       y="111.34552"
       rx="12.516453"
       ry="6.405653" />
    <rect
       style="fill:#838796;fill-opacity:1;stroke-width:0.21464798"
       id="rect416"
       width="38.742561"
       height="6.9654818"
       x="90.294388"
       y="104.97955"
       rx="2.2265797"
       ry="0.93211955" />
    <rect
       ry="5.8405714"
       rx="12.125272"
       y="115.3258"
       x="62.182087"
       height="82.278702"
       width="93.72776"
       id="rect418"
       style="fill:#727685;fill-opacity:1;stroke-width:0.20173344" />
    <rect
       style="fill:#35baf3;fill-opacity:1;stroke-width:0.18748772"
       id="rect420"
       width="86.168236"
       height="77.303368"
       x="65.961845"
       y="117.81347"
       rx="11.14732"
       ry="5.4873953" />
    <path
       style="fill:#ffd948;fill-opacity:1;stroke:#000000;stroke-width:0.287301px;stroke-linecap:butt;stroke-linejoin:miter;stroke-opacity:1"
       d="m 124.66653,133.77646 -14.65714,18.50796 c 0.47411,0.16539 21.34899,7.35369 21.34899,7.35369 L 87.696569,179.3811 103.90617,159.25442 81.322942,151.50916 Z"
       id="path422"
       inkscape:connector-curvature="0"
       sodipodi:nodetypes="ccccccc" />
  </g>
</svg>
