[gd_resource type="StyleBoxTexture" load_steps=2 format=2]

[ext_resource path="res://Assets/Kenney_UI_RPG/panel_blue.png" type="Texture" id=1]

[resource]
texture = ExtResource( 1 )
region_rect = Rect2( 0, 0, 100, 100 )
margin_left = 7.32519
margin_right = 8.13809
margin_top = 7.80592
margin_bottom = 7.58222
