<?xml version="1.0" encoding="UTF-8" standalone="no"?>
<!-- Created with Inkscape (http://www.inkscape.org/) -->

<svg
   xmlns:dc="http://purl.org/dc/elements/1.1/"
   xmlns:cc="http://creativecommons.org/ns#"
   xmlns:rdf="http://www.w3.org/1999/02/22-rdf-syntax-ns#"
   xmlns:svg="http://www.w3.org/2000/svg"
   xmlns="http://www.w3.org/2000/svg"
   xmlns:sodipodi="http://sodipodi.sourceforge.net/DTD/sodipodi-0.dtd"
   xmlns:inkscape="http://www.inkscape.org/namespaces/inkscape"
   width="210mm"
   height="297mm"
   viewBox="0 0 210 297"
   version="1.1"
   id="svg8"
   inkscape:version="0.92.3 (2405546, 2018-03-11)"
   sodipodi:docname="LaserBeam.svg"
   inkscape:export-filename="/home/boss/Documents/GitlabThings/deathmatch/Ammunition/LaserBeam/LaserBeam.png"
   inkscape:export-xdpi="4.3007998"
   inkscape:export-ydpi="4.3007998">
  <defs
     id="defs2" />
  <sodipodi:namedview
     id="base"
     pagecolor="#ffffff"
     bordercolor="#666666"
     borderopacity="1.0"
     inkscape:pageopacity="0.0"
     inkscape:pageshadow="2"
     inkscape:zoom="0.7"
     inkscape:cx="226.90946"
     inkscape:cy="443.22831"
     inkscape:document-units="mm"
     inkscape:current-layer="layer1"
     showgrid="false"
     inkscape:window-width="2560"
     inkscape:window-height="1381"
     inkscape:window-x="0"
     inkscape:window-y="0"
     inkscape:window-maximized="1" />
  <metadata
     id="metadata5">
    <rdf:RDF>
      <cc:Work
         rdf:about="">
        <dc:format>image/svg+xml</dc:format>
        <dc:type
           rdf:resource="http://purl.org/dc/dcmitype/StillImage" />
        <dc:title />
      </cc:Work>
    </rdf:RDF>
  </metadata>
  <g
     inkscape:label="Layer 1"
     inkscape:groupmode="layer"
     id="layer1">
    <rect
       style="fill:#1ea7e1;fill-opacity:1;stroke-width:0.26458332"
       id="rect74"
       width="98.273804"
       height="161.39583"
       x="59.342262"
       y="90.247025"
       rx="49.136902"
       ry="37.98661" />
    <rect
       ry="34.606068"
       rx="42.333332"
       y="97.428574"
       x="66.145836"
       height="147.03273"
       width="84.666664"
       id="rect76"
       style="fill:#35baf3;fill-opacity:1;stroke-width:0.23440166" />
    <path
       style="fill:#ffd948;fill-opacity:1;stroke-width:0.10097366"
       d="m 108.47917,97.428574 c 4.35198,0 8.10804,-0.668689 8.08942,9.482736 l -0.23386,127.46591 c -0.0203,11.08697 -3.50358,10.08408 -7.85556,10.08408 -4.35198,0 -7.8759,1.00351 -7.85556,-10.08408 l 0.23386,-127.46591 c 0.0186,-10.118472 3.26972,-9.482736 7.6217,-9.482736 z"
       id="rect78"
       inkscape:connector-curvature="0"
       sodipodi:nodetypes="sssssss" />
  </g>
</svg>
